select aea.Erase, aat.NumType, aa.TypeNum,* from AseAutoEventAction aea
join AseAutoAction aa on aea.ActionId = aa.IdAction
join AseAutoActionType aat on aa.TypeNum = aat.NumType
where aat.NumType = 4 and aea.Tag = 0
and aea.Erase = 0
and aea.Parameters like '%asebasetest@alfaproject.net%'

select aea.Erase, aat.NumType, aa.TypeNum,* from AseAutoEventAction aea
join AseAutoAction aa on aea.ActionId = aa.IdAction
join AseAutoActionType aat on aa.TypeNum = aat.NumType
where aat.NumType = 5 and aea.Tag = 0
and aea.Parameters like '%a@a.com%'


--or aea.Parameters like '%testing@gmail.com%')
select Erase, Parameters,* from AseAutoEventAction where Tag = 0 and Parameters like '%asebasetest@alfaproject.net%'
select * from AseAutoAction


select * from AseAutoEventAction where ideventaction = '90d6f307-56cd-45d7-bd8d-1e3b5efdd6ce'
select * from AseAutoEventAction where ideventaction = 'D3D09076-1408-4B01-B0AA-556125D66308'

delete from AseAutoEventAction where ideventaction = '90d6f307-56cd-45d7-bd8d-1e3b5efdd6ce'


=============================================================================================================================


--this query will get the Email Integration records on Index page
select aea.Erase, aat.NumType, aa.TypeNum,* from AseAutoEventAction aea
join AseAutoAction aa on aea.ActionId = aa.IdAction
join AseAutoActionType aat on aa.TypeNum = aat.NumType
where aat.NumType = 4 and aea.Tag = 0
and aea.Parameters like '%asebasetest@alfaproject.net%'


-- this query will get the server setting
select aea.Erase, aat.NumType, aa.TypeNum,* from AseAutoEventAction aea
join AseAutoAction aa on aea.ActionId = aa.IdAction
join AseAutoActionType aat on aa.TypeNum = aat.NumType
where aat.NumType = 5 and aea.Tag = 0
and aea.Parameters like '%asebasetest@alfaproject.net%'

select X.Erase, 
x.* from AseAutoEventAction X Where ActionId in (
'20E622AE-9EA1-464E-9AE2-0112CA01CEFE',
'CF6402CF-AD60-49AA-B9E4-1E71671FE1BF'
)


================================================================================================================================
SqlAseAutoEventAction.cs


using System;
using System.Collections.Generic;
using System.Linq;
using System.Text;
using System.Threading.Tasks;
using AlfaSynapseEngine.AseCore.ModelsWA;
using NHibernate;
using NHibernate.Linq;

namespace AlfaSynapseEngine.AseCore.RepositoryWA
{
    /// <summary>
    /// It's used to manage CRUD over AseAutoEventAction Entity
    /// </summary>
    public class SqlAseAutoEventAction : IAseAutoEventAction, IRepositorySessionHolder
    {

        /// <summary>
        /// Initialize nhibernate session, configure logger 
        /// </summary>
        /// <param name="pSession">IRepoSqlSession instance</param>
        public SqlAseAutoEventAction(IRepoSqlSession pSession)
        {
            repoSqlSession = pSession;
            this.session = _repoSqlSession.getCurrentSqlSession();
            log4net.Config.XmlConfigurator.Configure();
        }

        /// <summary>
        /// Declared for Logging managemant
        /// </summary>
        private static readonly log4net.ILog log = log4net.LogManager.GetLogger(System.Reflection.MethodBase.GetCurrentMethod().DeclaringType);

        /// <summary>
        /// store object implements IRepoSqlSession interface
        /// </summary>
        protected IRepoSqlSession _repoSqlSession;

        /// <summary>
        /// get/set IRepoSqlSession instance
        /// </summary>
        public IRepoSqlSession repoSqlSession
        {
            get
            {
                return _repoSqlSession;
            }
            set
            {
                _repoSqlSession = value;
            }
        }

        /// <summary>
        /// Represent ISession to be used in CRUD
        /// </summary>
        ISession _session;
        /// <summary>
        /// Used to manage NHibernate session
        /// </summary>
        public ISession session
        {
            get
            {
                return _session;
            }

            set
            {
                _session = value;
            }
        }


        /// <summary>
        /// Get AseAutoEvent Actions
        /// </summary>
        /// <returns>List of AseAutoEventActions</returns>
        public List<AseAutoEventAction> GetAseAutoEventActions()
        {
            List<AseAutoEventAction> lstAseAutoEventAction = new List<AseAutoEventAction>();
            try
            {
                //NHibernate query
                lstAseAutoEventAction = session.QueryOver<AseAutoEventAction>().OrderBy(x => x.ActionOrder).Asc.List().ToList();
            }
            catch (Exception ex)
            {
                if (log.IsErrorEnabled)
                    log.Error(ex.Message, ex);
            }
            return lstAseAutoEventAction;
        }



        /// <summary>
        /// Get AseAutoEventActions For EmailIntegration
        /// </summary>
        /// <returns>List of AseAutoEventActions</returns>
        public List<AseAutoEventAction> GetAseAutoEventActionsForEmailIntegration()
        {
            List<AseAutoEventAction> lstAseAutoEventAction = new List<AseAutoEventAction>();
            try
            {
                //NHibernate query
                lstAseAutoEventAction = (from aea in session.Query<AseAutoEventAction>()
                                         join aa in session.Query<AseAutoAction>() on
                                         aea.AseAutoAction.IdAction equals aa.IdAction
                                         join aat in session.Query<AseAutoActionType>() on
                                         aa.AseAutoActionType.NumType equals aat.NumType
                                         where aat.NumType == 4 && aea.Tag == 0
                                         select aea).Distinct().ToList();
            }
            catch (Exception ex)
            {
                if (log.IsErrorEnabled)
                    log.Error(ex.Message, ex);
            }
            return lstAseAutoEventAction;
        }

        /// <summary>
        /// Get AseAutoEventAction By Id
        /// </summary>
        /// <param name="Id">is AseAutoEventAction</param>
        /// <returns>AseAutoEventAction </returns>
        public AseAutoEventAction GetAseAutoEventActionById(Guid Id)
        {
            AseAutoEventAction autoeventaction = new AseAutoEventAction();
            try
            {
                autoeventaction = session.Query<AseAutoEventAction>().Where(x => x.IdEventAction == Id).FirstOrDefault();
            }
            catch (Exception x)
            {
                if (log.IsErrorEnabled)
                    log.Error(x.Message, x);
            }
            return autoeventaction;
        }

        /// <summary>
        /// Get AseAutoEvent Action By Name
        /// </summary>
        /// <param name="name">is Auto event action name </param>
        /// <returns>AseAutoEventAction</returns>
        public AseAutoEventAction GetAseAutoEventActionByName(string name)
        {
            AseAutoEventAction autoeventaction = new AseAutoEventAction();
            try
            {
                autoeventaction = session.Query<AseAutoEventAction>().Where(x => x.Name == name).FirstOrDefault();
            }
            catch (Exception x)
            {
                if (log.IsErrorEnabled)
                    log.Error(x.Message, x);
            }
            return autoeventaction;
        }

        /// <summary>
        /// Get AseAutoEvent Action By Name and ActionId
        /// </summary>
        /// <param name="name">is Name</param>
        /// <param name="actionid">is ActionId</param>
        /// <returns>AseAutoEventAction</returns>
        public AseAutoEventAction GetAseAutoEventActionByNameAndAction(string name, Guid actionid)
        {
            AseAutoEventAction autoeventaction = new AseAutoEventAction();
            try
            {
                autoeventaction = session.Query<AseAutoEventAction>().Where(x => x.Name == name
                    && x.AseAutoAction.IdAction == actionid).FirstOrDefault();
            }
            catch (Exception x)
            {
                if (log.IsErrorEnabled)
                    log.Error(x.Message, x);
            }
            return autoeventaction;
        }


        /// <summary>
        /// Get AseAutoEventAction Count 
        /// </summary>
        /// <param name="emailaccount">emailaccount</param>
        /// <returns>Count emailaccoutn</returns>
        public int GetAseAutoEventActionCount(string emailaccount)
        {
            int AutoEventAction = 0;
            IQueryable<AseAutoEventAction> filteredAutoEventAction;
            try
            {
                //filteredAutoEventAction = session.Query<AseAutoEventAction>().AsQueryable();

                filteredAutoEventAction = (from aea in session.Query<AseAutoEventAction>()
                                           join aa in session.Query<AseAutoAction>() on
                                           aea.AseAutoAction.IdAction equals aa.IdAction
                                           join aat in session.Query<AseAutoActionType>() on
                                           aa.AseAutoActionType.NumType equals aat.NumType
                                           where aat.NumType == 4 && aea.Tag == 0
                                           select aea).ToList().AsQueryable();

                if (!string.IsNullOrEmpty(emailaccount) && !string.IsNullOrWhiteSpace(emailaccount))
                {
                    filteredAutoEventAction = filteredAutoEventAction.Where(x => x.Parameters.ToLower().Contains(emailaccount.ToLower())).AsQueryable();
                }

                AutoEventAction = filteredAutoEventAction.Count();
            }
            catch (Exception x)
            {
                if (log.IsErrorEnabled)
                    log.Error(x.Message, x);
            }
            return AutoEventAction;
        }

        /// <summary>
        /// Get AseAutoEventAction Count
        /// </summary>
        /// <param name="name">is name </param>
        /// <param name="action">is action</param>
        /// <param name="description">is description</param>
        /// <param name="condition">is condition</param>
        /// <param name="isErase">us erase</param>
        /// <returns>Count of AseAutoEventAction</returns>
        public int GetAseAutoEventActionCount(string name, Guid action, string description, string condition, int isErase)
        {
            int AutoEventAction = 0;
            IQueryable<AseAutoEventAction> filteredAutoEventAction;
            try
            {
                filteredAutoEventAction = session.Query<AseAutoEventAction>().AsQueryable();

                if (!string.IsNullOrEmpty(name) && !string.IsNullOrWhiteSpace(name))
                {
                    filteredAutoEventAction = filteredAutoEventAction.Where(x => x.Name.ToLower().Contains(name.ToLower())).AsQueryable();
                }

                if (!string.IsNullOrEmpty(description) && !string.IsNullOrWhiteSpace(description))
                {
                    filteredAutoEventAction = filteredAutoEventAction.Where(x => x.Description.ToLower().Contains(description.ToLower())).AsQueryable();
                }

                if (!string.IsNullOrEmpty(condition) && !string.IsNullOrWhiteSpace(condition))
                {
                    filteredAutoEventAction = filteredAutoEventAction.Where(x => x.Condition.ToLower().Contains(condition.ToLower())).AsQueryable();
                }

                if (action != Guid.Empty)
                {
                    filteredAutoEventAction = filteredAutoEventAction.Where(x => x.AseAutoAction.IdAction == action).AsQueryable();
                }


                if (isErase == 1)
                {
                    filteredAutoEventAction = filteredAutoEventAction.Where(x => x.Erase == true).AsQueryable();
                }
                else if (isErase == 0)
                {
                    filteredAutoEventAction = filteredAutoEventAction.Where(x => x.Erase == false).AsQueryable();
                }

                AutoEventAction = filteredAutoEventAction.Count();
            }
            catch (Exception x)
            {
                if (log.IsErrorEnabled)
                    log.Error(x.Message, x);
            }
            return AutoEventAction;
        }

        /// <summary>
        /// Get AseAutoEventAction List
        /// </summary>
        /// <param name="name">is name </param>
        /// <param name="action">is action</param>
        /// <param name="description">is description</param>
        /// <param name="condition">is condition</param>
        /// <param name="isErase">us erase</param>
        /// <param name="pagesize">is pagesize</param>
        /// <param name="pagenumber">is pagenumber</param>
        /// <returns>List of AseAutoEventAction</returns>
        public List<AseAutoEventAction> GetAseAutoEventActions(string name, Guid action, string description, string condition, int isErase, int pagesize, int pagenumber)
        {
            List<AseAutoEventAction> ListAutoEventAction = null;
            int skip = (pagenumber - 1) * pagesize;
            IQueryable<AseAutoEventAction> filteredAutoEventAction;
            try
            {
                filteredAutoEventAction = session.Query<AseAutoEventAction>().AsQueryable();

                if (!string.IsNullOrEmpty(name) && !string.IsNullOrWhiteSpace(name))
                {
                    filteredAutoEventAction = filteredAutoEventAction.Where(x => x.Name.ToLower().Contains(name.ToLower())).AsQueryable();
                }

                if (!string.IsNullOrEmpty(description) && !string.IsNullOrWhiteSpace(description))
                {
                    filteredAutoEventAction = filteredAutoEventAction.Where(x => x.Description.ToLower().Contains(description.ToLower())).AsQueryable();
                }

                if (!string.IsNullOrEmpty(condition) && !string.IsNullOrWhiteSpace(condition))
                {
                    filteredAutoEventAction = filteredAutoEventAction.Where(x => x.Condition.ToLower().Contains(condition.ToLower())).AsQueryable();
                }

                if (action != Guid.Empty)
                {
                    filteredAutoEventAction = filteredAutoEventAction.Where(x => x.AseAutoAction.IdAction == action).AsQueryable();
                }

                if (isErase == 1)
                {
                    filteredAutoEventAction = filteredAutoEventAction.Where(x => x.Erase == true).AsQueryable();
                }
                else if (isErase == 0)
                {
                    filteredAutoEventAction = filteredAutoEventAction.Where(x => x.Erase == false).AsQueryable();
                }

                ListAutoEventAction = filteredAutoEventAction.OrderBy(x => x.Name).Skip(skip).Take(pagesize).ToList();
            }
            catch (Exception x)
            {
                if (log.IsErrorEnabled)
                    log.Error(x.Message, x);
            }
            return ListAutoEventAction;
        }


        /// <summary>
        /// Get AseAutoEventActions
        /// </summary>
        /// <param name="emailaccount">is emailaccount</param>
        /// <param name="pageSize">is pazesize</param>
        /// <param name="pageNumber">is page number</param>
        /// <returns>List of AseAutoEventAction</returns>
        public List<AseAutoEventAction> GetAseAutoEventActions(string emailaccount, int pageSize, int pageNumber)
        {
            List<AseAutoEventAction> lstAseAutoEventAction = null;
            int skip = (pageNumber - 1) * pageSize;

            IQueryable<AseAutoEventAction> filteredAutoEventAction;
            try
            {
                //filteredAutoEventAction = session.Query<AseAutoEventAction>().AsQueryable();

                filteredAutoEventAction = (from aea in session.Query<AseAutoEventAction>()
                                           join aa in session.Query<AseAutoAction>() on
                                           aea.AseAutoAction.IdAction equals aa.IdAction
                                           join aat in session.Query<AseAutoActionType>() on
                                           aa.AseAutoActionType.NumType equals aat.NumType
                                           where aat.NumType == 4 && aea.Tag == 0
                                           select aea).ToList().AsQueryable();

                if (!string.IsNullOrEmpty(emailaccount) && !string.IsNullOrWhiteSpace(emailaccount))
                {
                    filteredAutoEventAction = filteredAutoEventAction.Where(x => x.Parameters.ToLower().Contains(emailaccount.ToLower())).AsQueryable();
                }

                lstAseAutoEventAction = filteredAutoEventAction.OrderBy(x => x.Name).Skip(skip).Take(pageSize).ToList();
            }
            catch (Exception x)
            {
                if (log.IsErrorEnabled)
                    log.Error(x.Message, x);
            }
            return lstAseAutoEventAction;
        }

        /// <summary>
        /// Get AseAutoEventActions For EmailIntegration 
        /// </summary>
        /// <param name="pageSize">is pagesize</param>
        /// <param name="pageNumber">is pagenumber</param>
        /// <returns>List of AseAutoEventAction </returns>
        public List<AseAutoEventAction> GetAseAutoEventActionsForEmailIntegration(int pageSize, int pageNumber)
        {
            List<AseAutoEventAction> lstAseAutoEventAction = new List<AseAutoEventAction>();
            try
            {
                int skip = (pageNumber - 1) * pageSize;
                //NHibernate query
                lstAseAutoEventAction = (from aea in session.Query<AseAutoEventAction>()
                                         join aa in session.Query<AseAutoAction>() on
                                         aea.AseAutoAction.IdAction equals aa.IdAction
                                         join aat in session.Query<AseAutoActionType>() on
                                         aa.AseAutoActionType.NumType equals aat.NumType
                                         where aat.NumType == 4 && aea.Tag == 0
                                         select aea).Distinct().ToList();

                lstAseAutoEventAction = lstAseAutoEventAction.Skip(skip).Take(pageSize).ToList();
            }
            catch (Exception ex)
            {
                if (log.IsErrorEnabled)
                    log.Error(ex.Message, ex);
            }
            return lstAseAutoEventAction;
        }


        /// <summary>
        /// Used to Create AseAutoEventAction type data.
        /// </summary>
        /// <param name="Autoeventaction">is the object which represent the AseAutoEventAction</param>
        public bool CreateAseAutoEventAction(AseAutoEventAction Autoeventaction)
        {
            try
            {
                //Perform transaction 
                using (ITransaction tran = session.BeginTransaction())
                {
                    session.Save(Autoeventaction);
                    tran.Commit();
                    return true;
                }
            }
            catch (Exception x)
            {
                if (log.IsErrorEnabled)
                    log.Error(x.Message, x);
                return false;
            }
        }

        /// <summary>
        /// Used to Update AseAutoEventAction type data.
        /// </summary>
        /// <param name="Autoeventaction">is the object which represent the AseAutoEventAction</param>
        public bool UpdateAseAutoEventAction(AseAutoEventAction Autoeventaction)
        {
            try
            {
                //Perform transaction 
                using (ITransaction tran = session.BeginTransaction())
                {
                    session.Merge(Autoeventaction);
                    tran.Commit();
                }
                return true;
            }
            catch (Exception x)
            {
                if (log.IsErrorEnabled)
                    log.Error(x.Message, x);
                return false;
            }
        }

        /// <summary>
        /// Used to Delete AseAutoEventAction type data.
        /// </summary>
        /// <param name="Autoeventaction">is the object which represent the AseAutoEventAction</param>
        public bool DeleteAseComponent(AseAutoEventAction Autoeventaction)
        {
            try
            {
                //Perform transaction 
                using (ITransaction tran = session.BeginTransaction())
                {
                    session.Update(Autoeventaction);
                    tran.Commit();
                }
                return true;
            }
            catch (Exception x)
            {
                if (log.IsErrorEnabled)
                    log.Error(x.Message, x);
                return false;
            }
        }




        /// <summary>
        /// Get AseAutoEvent Action By Email Account
        /// </summary>
        /// <param name="emailAccount">Email Account</param>
        /// <returns>AseAutoEventAction</returns>
        public AseAutoEventAction GetAseAutoEventActionForServerSetting(string emailAccount)
        {
            AseAutoEventAction oAseAutoEventAction = null;
            IQueryable<AseAutoEventAction> filteredAutoEventAction;
            try
            {
                filteredAutoEventAction = (from aea in session.Query<AseAutoEventAction>()
                                           join aa in session.Query<AseAutoAction>()
                                           on aea.AseAutoAction.IdAction equals aa.IdAction
                                           join aat in session.Query<AseAutoActionType>()
                                           on aa.AseAutoActionType.NumType equals aat.NumType
                                           where aat.NumType == 5 && aea.Tag == 0
                                           select aea).ToList().AsQueryable();

                if (!string.IsNullOrEmpty(emailAccount) && !string.IsNullOrWhiteSpace(emailAccount))
                {
                    filteredAutoEventAction = filteredAutoEventAction.Where(x => x.Parameters.ToLower().Contains(emailAccount.ToLower())).AsQueryable();
                }
                oAseAutoEventAction = filteredAutoEventAction.FirstOrDefault();
            }
            catch (Exception x)
            {
                if (log.IsErrorEnabled)
                    log.Error(x.Message, x);
            }
            return oAseAutoEventAction;
        }

        /// <summary>
        /// Get AseAutoEventActions For ServerSettings
        /// </summary>
        /// <returns>List of ServerSettingsfrom AseAutoEventActions</returns>
        public List<AseAutoEventAction> GetAseAutoEventActionsForServerSettings()
        {
            List<AseAutoEventAction> lstserverSettings = new List<AseAutoEventAction>();
            try
            {
                //NHibernate query
                lstserverSettings = (from aea in session.Query<AseAutoEventAction>()
                                     join aa in session.Query<AseAutoAction>() on
                                     aea.AseAutoAction.IdAction equals aa.IdAction
                                     join aat in session.Query<AseAutoActionType>() on
                                     aa.AseAutoActionType.NumType equals aat.NumType
                                     where aat.NumType == 5 && aea.Tag == 0
                                     select aea).Distinct().ToList();
            }
            catch (Exception ex)
            {
                if (log.IsErrorEnabled)
                    log.Error(ex.Message, ex);
            }
            return lstserverSettings;
        }

        /// <summary>
        /// Get Server Setting For Email Integration
        /// </summary>
        /// <returns>is List of AseAutoEventAction</returns>
        public List<AseAutoEventAction> GetServerSettingForEmailIntegration()
        {

            List<AseAutoEventAction> lstserverSettings = new List<AseAutoEventAction>();
            try
            {
                //NHibernate query
                lstserverSettings = (from aea in session.Query<AseAutoEventAction>()
                                     join aa in session.Query<AseAutoAction>() on
                                     aea.AseAutoAction.IdAction equals aa.IdAction
                                     join aat in session.Query<AseAutoActionType>() on
                                     aa.AseAutoActionType.NumType equals aat.NumType
                                     where aat.NumType == 5
                                     select aea).Distinct().ToList();
            }
            catch (Exception ex)
            {
                if (log.IsErrorEnabled)
                    log.Error(ex.Message, ex);
            }
            return lstserverSettings;

        }


        //ASE-6210

        #region ASE-6210
        /// <summary>
        /// Get AseAutoEventActions For EmailIntegration  WITH ERASE NOT NULL and ERASE==false
        /// </summary>
        /// <returns>List of AseAutoEventActions</returns>
        public List<AseAutoEventAction> GetAseAutoEventActionsForEmailIntegrationNoErase()
        {
            List<AseAutoEventAction> lstAseAutoEventAction = new List<AseAutoEventAction>();
            try
            {
                //NHibernate query
                lstAseAutoEventAction = (from aea in session.Query<AseAutoEventAction>()
                                         join aa in session.Query<AseAutoAction>() on
                                         aea.AseAutoAction.IdAction equals aa.IdAction
                                         join aat in session.Query<AseAutoActionType>() on
                                         aa.AseAutoActionType.NumType equals aat.NumType
                                         where aat.NumType == 4 && aea.Tag == 0 && aea.Erase.HasValue && aea.Erase == false
                                         select aea).Distinct().ToList();
            }
            catch (Exception ex)
            {
                if (log.IsErrorEnabled)
                    log.Error(ex.Message, ex);
            }
            return lstAseAutoEventAction;
        }



        /// <summary>
        /// Get Server Setting For Email Integration WITH ERASE NOT NULL and ERASE==false
        /// </summary>
        /// <returns>is List of AseAutoEventAction</returns>
        public List<AseAutoEventAction> GetServerSettingForEmailIntegrationNoErase()
        {

            List<AseAutoEventAction> lstserverSettings = new List<AseAutoEventAction>();
            try
            {
                //NHibernate query
                lstserverSettings = (from aea in session.Query<AseAutoEventAction>()
                                     join aa in session.Query<AseAutoAction>() on
                                     aea.AseAutoAction.IdAction equals aa.IdAction
                                     join aat in session.Query<AseAutoActionType>() on
                                     aa.AseAutoActionType.NumType equals aat.NumType
                                     where aat.NumType == 5 && aea.Erase.HasValue && aea.Erase == false
                                     select aea).Distinct().ToList();
            }
            catch (Exception ex)
            {
                if (log.IsErrorEnabled)
                    log.Error(ex.Message, ex);
            }
            return lstserverSettings;

        }





        //ASE-6210
        /// <summary>
        /// Get AseAutoEvent Action BY EmailAccount  WITH ERASE NOT NULL and ERASE==false
        /// </summary>
        /// <param name="emailaccount">is EmailAccount</param>
        /// <returns>AseAutoEventAction</returns>
        public AseAutoEventAction GetAseAutoEventActionBYEmailAccountNoErase(string emailaccount)
        {
            AseAutoEventAction lstAseAutoEventAction = new AseAutoEventAction();

            IQueryable<AseAutoEventAction> filteredAutoEventAction;
            try
            {
                filteredAutoEventAction = (from aea in session.Query<AseAutoEventAction>()
                                           join aa in session.Query<AseAutoAction>() on
                                           aea.AseAutoAction.IdAction equals aa.IdAction
                                           join aat in session.Query<AseAutoActionType>() on
                                           aa.AseAutoActionType.NumType equals aat.NumType
                                           where aat.NumType == 4 && aea.Tag == 0 && aea.Erase.HasValue && aea.Erase == false
                                           select aea).ToList().AsQueryable();

                if (!string.IsNullOrEmpty(emailaccount) && !string.IsNullOrWhiteSpace(emailaccount))
                {
                    //ASE-6328
                    //2019-10-15 Fix Search in Json parameter:  \ is a "control" character. If you want a literal backslash within your JSON, you'll need to escape it: "\\"
                    string _Jsonemailaccount = emailaccount.Replace(@"\", @"\\");

                    //filteredAutoEventAction = filteredAutoEventAction.Where(x => x != null
                    //                            && x.Parameters.ToLower().Contains(emailaccount.ToLower())).AsQueryable();

                    filteredAutoEventAction = filteredAutoEventAction.Where(x => x != null
                                                && x.Parameters.ToLower().Contains(_Jsonemailaccount.ToLower())).AsQueryable();
                    //ASE-6328

                }

                lstAseAutoEventAction = filteredAutoEventAction.OrderBy(x => x.Name).FirstOrDefault();
            }
            catch (Exception x)
            {
                if (log.IsErrorEnabled)
                    log.Error(x.Message, x);
            }
            return lstAseAutoEventAction;
        }
        #endregion


        /// <summary>
        /// Get AseAutoEvent Action BY EmailAccount
        /// </summary>
        /// <param name="emailaccount">is EmailAccount</param>
        /// <returns>AseAutoEventAction</returns>
        public AseAutoEventAction GetAseAutoEventActionBYEmailAccount(string emailaccount)
        {
            AseAutoEventAction lstAseAutoEventAction = new AseAutoEventAction();

            IQueryable<AseAutoEventAction> filteredAutoEventAction;
            try
            {
                filteredAutoEventAction = (from aea in session.Query<AseAutoEventAction>()
                                           join aa in session.Query<AseAutoAction>() on
                                           aea.AseAutoAction.IdAction equals aa.IdAction
                                           join aat in session.Query<AseAutoActionType>() on
                                           aa.AseAutoActionType.NumType equals aat.NumType
                                           where aat.NumType == 4 && aea.Tag == 0
                                           select aea).ToList().AsQueryable();

                if (!string.IsNullOrEmpty(emailaccount) && !string.IsNullOrWhiteSpace(emailaccount))
                {
                    filteredAutoEventAction = filteredAutoEventAction.Where(x => x.Parameters.ToLower().Contains(emailaccount.ToLower())).AsQueryable();
                }

                lstAseAutoEventAction = filteredAutoEventAction.OrderBy(x => x.Name).FirstOrDefault();
            }
            catch (Exception x)
            {
                if (log.IsErrorEnabled)
                    log.Error(x.Message, x);
            }
            return lstAseAutoEventAction;
        }

        /// <summary>
        /// Check AseAutoEvent Action Name is exist or not
        /// </summary>
        /// <param name="name">is Name</param>
        /// <param name="idAutoEventAction">is a idAutoEventAction</param>
        /// <returns>true false based on result</returns>
        public bool IsExistAseAutoEventActionName(string name, Guid idAutoEventAction)
        {
            AseAutoEventAction autoeventaction = new AseAutoEventAction();
            try
            {
                if (idAutoEventAction == Guid.Empty)
                {
                    autoeventaction = session.Query<AseAutoEventAction>().Where(x => x.Name == name).FirstOrDefault();
                }
                else
                {
                    autoeventaction = session.Query<AseAutoEventAction>().Where(x => x.Name == name && x.IdEventAction != idAutoEventAction).FirstOrDefault();
                }


                if (autoeventaction != null)
                    return true;
            }
            catch (Exception x)
            {
                if (log.IsErrorEnabled)
                    log.Error(x.Message, x);
            }
            return false;
        }

        /// <summary>
        /// Get AseAutoEvent Action By Name and ActionId and isTrue
        /// </summary>
        /// <param name="name">is Name</param>
        /// <param name="actionid">is ActionId</param>
        /// <param name="isTrue">is isTrue</param>
        /// <returns>true false based on result</returns>
        public bool IsExistAseAutoEventAction(string name, Guid actionid, bool isTrue)
        {
            AseAutoEventAction autoeventaction = new AseAutoEventAction();
            try
            {
                autoeventaction = session.Query<AseAutoEventAction>().Where(x => x.Name == name
                    && x.AseAutoAction.IdAction == actionid && x.IsTrue == isTrue).FirstOrDefault();

                if (autoeventaction != null)
                    return true;
            }
            catch (Exception x)
            {
                if (log.IsErrorEnabled)
                    log.Error(x.Message, x);
            }
            return false;
        }

        /// <summary>
        /// Get AseAutoEvent Action By Name and ActionId and isTrue
        /// </summary>
        /// <param name="model">is AseAutoEventAction model</param>
        /// <returns>true false based on result</returns>
        public bool IsExistAseAutoEventAction(AseAutoEventAction model)
        {
            AseAutoEventAction autoeventaction = new AseAutoEventAction();
            try
            {
                autoeventaction = session.Query<AseAutoEventAction>().Where(x => x.Name == model.Name
                    && x.AseAutoAction.IdAction == model.AseAutoAction.IdAction && x.IsTrue == model.IsTrue
                    && x.IdEventAction != model.IdEventAction).FirstOrDefault();

                if (autoeventaction != null)
                    return true;
            }
            catch (Exception x)
            {
                if (log.IsErrorEnabled)
                    log.Error(x.Message, x);
            }
            return false;
        }

        /// <summary>
        /// Get AseAutoEventActions For EmailIntegration
        /// </summary>
        /// <param name="isErase">is isErase</param>
        /// <returns>List of AseAutoEventActions</returns>
        public List<AseAutoEventAction> GetAseAutoEventActionsForEmailIntegrationByEraseValue(bool isErase)
        {
            List<AseAutoEventAction> lstAseAutoEventAction = new List<AseAutoEventAction>();
            try
            {
                //NHibernate query
                lstAseAutoEventAction = (from aea in session.Query<AseAutoEventAction>()
                                         join aa in session.Query<AseAutoAction>() on
                                         aea.AseAutoAction.IdAction equals aa.IdAction
                                         join aat in session.Query<AseAutoActionType>() on
                                         aa.AseAutoActionType.NumType equals aat.NumType
                                         where aat.NumType == 4 && aea.Tag == 0
                                         && aea.Erase.HasValue && aea.Erase == isErase
                                         select aea).Distinct().ToList();
            }
            catch (Exception ex)
            {
                if (log.IsErrorEnabled)
                    log.Error(ex.Message, ex);
            }
            return lstAseAutoEventAction;
        }

        /// <summary>
        /// Get AseAutoEventActions
        /// </summary>
        /// <param name="emailaccount">is emailaccount</param>
        /// <param name="isErase">is isErase</param>
        /// <param name="pageSize">is pazesize</param>
        /// <param name="pageNumber">is page number</param>
        /// <returns>List of AseAutoEventAction</returns>
        public List<AseAutoEventAction> GetAseAutoEventActionsByEraseValue(string emailaccount, bool isErase, int pageSize, int pageNumber)
        {
            List<AseAutoEventAction> lstAseAutoEventAction = null;
            int skip = (pageNumber - 1) * pageSize;

            IQueryable<AseAutoEventAction> filteredAutoEventAction;
            try
            {
                //filteredAutoEventAction = session.Query<AseAutoEventAction>().AsQueryable();

                filteredAutoEventAction = (from aea in session.Query<AseAutoEventAction>()
                                           join aa in session.Query<AseAutoAction>() on
                                           aea.AseAutoAction.IdAction equals aa.IdAction
                                           join aat in session.Query<AseAutoActionType>() on
                                           aa.AseAutoActionType.NumType equals aat.NumType
                                           where aat.NumType == 4 && aea.Tag == 0
                                           && aea.Erase.HasValue && aea.Erase == isErase
                                           select aea).ToList().AsQueryable();

                if (!string.IsNullOrEmpty(emailaccount) && !string.IsNullOrWhiteSpace(emailaccount))
                {
                    filteredAutoEventAction = filteredAutoEventAction.Where(x => x.Parameters.ToLower().Contains(emailaccount.ToLower())).AsQueryable();
                }

                lstAseAutoEventAction = filteredAutoEventAction.OrderBy(x => x.Name).Skip(skip).Take(pageSize).ToList();
            }
            catch (Exception x)
            {
                if (log.IsErrorEnabled)
                    log.Error(x.Message, x);
            }
            return lstAseAutoEventAction;
        }

        /// <summary>
        /// Get AseAutoEventAction Count 
        /// </summary>
        /// <param name="emailaccount">emailaccount</param>
        /// <param name="isErase">is isErase</param>
        /// <returns>Count emailaccoutn</returns>
        public int GetAseAutoEventActionCountByEraseValue(string emailaccount, bool isErase)
        {
            int AutoEventAction = 0;
            IQueryable<AseAutoEventAction> filteredAutoEventAction;
            try
            {
                //filteredAutoEventAction = session.Query<AseAutoEventAction>().AsQueryable();

                filteredAutoEventAction = (from aea in session.Query<AseAutoEventAction>()
                                           join aa in session.Query<AseAutoAction>() on
                                           aea.AseAutoAction.IdAction equals aa.IdAction
                                           join aat in session.Query<AseAutoActionType>() on
                                           aa.AseAutoActionType.NumType equals aat.NumType
                                           where aat.NumType == 4 && aea.Tag == 0
                                           && aea.Erase.HasValue && aea.Erase == isErase
                                           select aea).ToList().AsQueryable();

                if (!string.IsNullOrEmpty(emailaccount) && !string.IsNullOrWhiteSpace(emailaccount))
                {
                    filteredAutoEventAction = filteredAutoEventAction.Where(x => x.Parameters.ToLower().Contains(emailaccount.ToLower())).AsQueryable();
                }

                AutoEventAction = filteredAutoEventAction.Count();
            }
            catch (Exception x)
            {
                if (log.IsErrorEnabled)
                    log.Error(x.Message, x);
            }
            return AutoEventAction;
        }
    }
}
==========================================================================================================================================
AseCommonUtil/Util/AseCommonConst.cs

using AlfaSynapseEngine.AseCommonUtil.AseException;
using System;
using System.Collections.Generic;
using System.Linq;
using System.Text;
using System.Threading.Tasks;

namespace AlfaSynapseEngine.AseCommonUtil.Util
{
    /// <summary>
    /// Ase Suite Common Const
    /// </summary>
    public class AseCommonConst
    {

        /// <summary>
        /// Default Value/Flag for ENABLED Property in ASE
        /// </summary>
        public const short C_ASE_COMMON_ENABLED_FLAG_1 = 1;

        /// <summary>
        /// Default Value/Flag for DISABLED Property in ASE
        /// </summary>
        public const short C_ASE_COMMON_DISABLED_FLAG_0 = 0;



        /// <summary>
        /// Default Separator String Item of List in ASE
        /// </summary>
        public const string C_ASE_COMMON_LIST_SEPARATOR = "#";

        /// <summary>
        /// Default Delimeter String Tag in ASE
        /// </summary>
        public const string C_ASE_COMMON_TAG_DELIMITER = @"""";

        /// <summary>
        /// Separator String Item of List in ASE Used ONLY for Display purpose - UI ONLY
        /// </summary>
        public const string C_ASE_COMMON_TAGLIST_UI_SEPARATOR = ",";


        public const string C_ASE_REGEXP_ALPHANUMERIC_UNDERSCORE_MINUS_ONLY = @"^[0-9a-zA-z_-]*$";

        #region GUID SYSTEM USER

        public const String C_GUID_SUPERUSER = "1260bd5b-6a57-4ecd-9a97-0b6799f1aac5";
        public static Guid getSuperuserGuid()
        {
            return new Guid(C_GUID_SUPERUSER);
        }
        public static readonly Guid C_GUID_SUPERUSER_GUID = new Guid(C_GUID_SUPERUSER);


        public const String C_GUID_BUTTONFROMLINE = "3bf99250-a277-48e4-9907-0f06ec0e81d4";
        public static Guid getButtonFromLineUserGuid()
        {
            return new Guid(C_GUID_BUTTONFROMLINE);
        }
        public static readonly Guid C_GUID_BUTTONFROMLINE_GUID = new Guid(C_GUID_BUTTONFROMLINE);

        public const String C_GUID_MASTERDAEMON = "4A295ED5-C23B-4448-8DB6-4BE67D377211";
        public static Guid getMasterDaemonUserGuid()
        {
            return new Guid(C_GUID_MASTERDAEMON);
        }

        public static readonly Guid C_GUID_MASTERDAEMON_GUID = new Guid(C_GUID_MASTERDAEMON);

        public const String C_GUID_USER_WEBAPI = "3FCFCCB6-8951-4F3A-AB68-D5B24DDD88BF";
        public static Guid GetWebApinUserGuid()
        {
            return new Guid(C_GUID_USER_WEBAPI);
        }
        public static readonly Guid C_GUID_USER_WEBAPI_GUID = new Guid(C_GUID_USER_WEBAPI);



        //ASE-4221
        public const String C_GUID_USER_AUTOMATEDPROCEDURE = "573A0D30-7527-DE35-D6C3-11624EF86BCD";
        public static Guid GetAutomatedProcedureUserGuid()
        {
            return new Guid(C_GUID_USER_AUTOMATEDPROCEDURE);
        }
        public static readonly Guid C_GUID_USER_AUTOMATEDPROCEDURE_GUID = new Guid(C_GUID_USER_AUTOMATEDPROCEDURE);


        public const String C_GUID_USER_HfJob = "A17D8C37-5DD6-4C96-AB98-8F4A0C8F1E13";
        public static Guid GetHfJobGuid()
        {
            return new Guid(C_GUID_USER_HfJob);
        }
        public static readonly Guid C_GUID_USER_HfJob_GUID = new Guid(C_GUID_USER_HfJob);


        public const String C_GUID_USER_WAMDRP = "BDB5C2B1-3DA8-4861-9034-B03B66336E97";
        public static Guid GetWAMDRPGuid()
        {
            return new Guid(C_GUID_USER_WAMDRP);
        }


        public const String C_GUID_USER_WARP = "FCC711C6-5B34-4170-BE75-515EC6F2DB4C";
        public static Guid GetWAMRPGuid()
        {
            return new Guid(C_GUID_USER_WARP);
        }


        public const String C_GUID_USER_WebAppMobileDevice = "66EAF7CF-BEFA-49B7-B89B-E7E760EB6199";
        public static Guid GetWebAppMobileDeviceGuid()
        {
            return new Guid(C_GUID_USER_WebAppMobileDevice);
        }


        public const String C_GUID_USER_WebAppSmartBadge = "31797C0D-5FC0-48D7-9BEB-1ADB8F45471F";
        public static Guid GetWebAppSmartBadgeGuid()
        {
            return new Guid(C_GUID_USER_WebAppSmartBadge);
        }




        public const String C_GUID_USER_WebServiceEXT = "93C3958D-8649-4266-BC4D-AD2658419555";
        public static Guid GetWebServiceEXTGuid()
        {
            return new Guid(C_GUID_USER_WebServiceEXT);
        }


        public const String C_GUID_USER_AseToExtDataExchange = "89F8718C-B370-4CE2-AEB4-B534941897DF";
        public static Guid GetAseToExtDataExchangeGuid()
        {
            return new Guid(C_GUID_USER_AseToExtDataExchange);
        }
        public static readonly Guid C_GUID_USER_AseToExtDataExchange_GUID = new Guid(C_GUID_USER_AseToExtDataExchange);

        public const String C_GUID_USER_ExtToAseDataExchange = "00679ECB-04AA-4845-8512-36A886458CAA";
        public static Guid GetExtToAseDataExchangeGuid()
        {
            return new Guid(C_GUID_USER_ExtToAseDataExchange);
        }
        public static readonly Guid C_GUID_USER_ExtToAseDataExchange_GUID = new Guid(C_GUID_USER_ExtToAseDataExchange);
        #endregion GUID SYSTEM USER

        /// <summary>
        /// EKPRODUCTIONCONTROL Default Product Code.
        /// </summary>
        public const String C_EKPRODUCTIONCONTROL_DEFAULTPRODUCTCOD = @"DEFAULTPRODUCTCOD";



        /// <summary>
        /// ModifiedBy User field Constant.
        /// </summary>
        public const String C_MODIFIED_USER = C_SUPERUSER_USER; //"superuser";


        /// <summary>
        /// Superuser Username field Constant.
        /// </summary>
        public const String C_SUPERUSER_USER = "superuser";


        /// <summary>
        /// Use for convert date format for ticket comment.
        /// </summary>
        public const string C_TICKET_COMMENT_DATE_FORMAT = "dd/MM/yyyy HH:mm:ss";

        /// <summary>
        /// Default Value max items in paging
        /// </summary>
        public const int C_PAGE_SIZE_DEFAULT_VALUE = 20;

        /// <summary>
        /// Session Key for PageSize value 
        /// </summary>
        public const String C_PAGE_SIZE_KEY = @"PageSize";



        /// <summary>
        /// Code/TAG for Web App ASE (WAASE)
        /// </summary>
        public const string C_ASE_APPLICATION_CODE_WAASE = "WAASE";


        /// <summary>
        /// Code/TAG for Web Api ASE (WSAPI)
        /// </summary>
        public const string C_ASE_APPLICATION_CODE_WSAPI = "WSAPI";





        /// <summary>
        /// Use to get contactId for Web App Mobile Device
        /// </summary>
        public const string C_ASE_APPLICATION_CODE_WAMD = "WAMD";

        /// <summary>
        /// Use to get "WAMDAppConfiguration" identifier value from SysConfiguration Table
        /// </summary>
        public const String C_ASE_SYSCONFIGURATION_KEY_WAMDAppConfiguration = "WAMDAppConfiguration";

        /// <summary>
        /// Use to get "WAASEAppConfiguration" identifier value from SysConfiguration Table
        /// </summary>
        public const String C_ASE_SYSCONFIGURATION_KEY_WAASEAppConfiguration = "WAASEAppConfiguration";


        /// <summary>
        /// Use to get contactId for Web App Smart Badge
        /// </summary>
        public const string C_ASE_APPLICATION_CODE_WASB = "WASB";



        /// <summary>
        /// Use to get contactId for Web App Mobile Device Responsive HTML5
        /// </summary>
        public const string C_ASE_APPLICATION_CODE_WARP = "WARP";


        /// <summary>
        /// Application Code of AseLogger Plus
        /// </summary>
        public const string C_ASE_APPLICATION_CODE_LOGP = "LOGP";


        /// <summary>
        /// Use to get contactId for Web App Mobile Device Responsive HTML5
        /// </summary>
        public const string C_ASE_APPLICATION_CODE_DMAS = "DMAS";


        /// <summary>
        /// Use to get contactId for Web App Mobile Device Responsive HTML5/LEGACY Development Only
        /// </summary>
        public const string C_ASE_APPLICATION_CODE_WAMDR = "WAMDR";


        public static readonly string[] AseApplicationCod_ALLOWED_VALUES = { C_ASE_APPLICATION_CODE_WARP
                                                                                ,C_ASE_APPLICATION_CODE_WASB
                                                                                ,C_ASE_APPLICATION_CODE_WAMDR
                                                                                ,C_ASE_APPLICATION_CODE_WAMD
                                                                                ,C_ASE_APPLICATION_CODE_WSAPI
                                                                                ,C_ASE_APPLICATION_CODE_WAASE
                                                                                ,C_ASE_APPLICATION_CODE_DMAS
                                                                                ,C_ASE_APPLICATION_CODE_LOGP};

        public static bool IsValidApplicationCod(string pAseApplicationCod)
        {
            bool __b = false;
            if (String.IsNullOrEmpty(pAseApplicationCod))
            {
                return false;
            }

            __b = AseApplicationCod_ALLOWED_VALUES.Any(x => x.Equals(pAseApplicationCod, StringComparison.InvariantCultureIgnoreCase));


            return __b;

        }


        /// <summary>
        /// Use to get "WARPAppConfiguration" identifier value from SysConfiguration Table
        /// </summary>
        public const String C_ASE_SYSCONFIGURATION_KEY_WARPAppConfiguration = "WARPAppConfiguration";


        /// <summary>
        /// Use to get "WSAPIConfiguration" identifier value from SysConfiguration Table
        /// </summary>
        public const String C_ASE_SYSCONFIGURATION_KEY_WSAPIConfiguration = "WSAPIConfiguration";




        /// <summary>
        /// Use to get ToStrategy value from WAMDAppConfiguration identifier from SysConfiguration Table
        /// </summary>
        public const string C_ASE_SYSCONFIGURATION_KEY_WAMDAppConfig_TOStrategy = "TOStrategy";

        /// <summary>
        /// Use to get "SMARTBADGE" AseRole identifier value from SysConfiguration Table
        /// </summary>
        public const String C_ASE_SYSCONFIGURATION_KEY_SbRole = "SbRole";

        /// <summary>
        /// Use to get "WS_TicketManagement_URL" identifier value from SysConfiguration Table
        /// </summary>
        public const String C_ASE_SYSCONFIGURATION_KEY_WS_TicketManagement_URL = "WS_TicketManagement_URL";

        /// <summary>
        /// Use to get "WS_Andon_URL" identifier value from SysConfiguration Table
        /// </summary>
        public const String C_ASE_SYSCONFIGURATION_KEY_WS_Andon_URL = "WS_Andon_URL";

        /// <summary>
        /// Tag for all sysconfiguration items of Transfer Order SAP web service (ZIT1BC10_CEMLOG_WMTORD_SRV)
        /// </summary>
        public const String C_ASE_SYSCONFIGURATION_TAG_WSSAP = "WsSAP";

        /// <summary>
        /// Use to get Transfer Order web service (ZIT1BC10_CEMLOG_WMTORD_SRV) url identifier value from SysConfiguration Table
        /// </summary>
        public const String C_ASE_SYSCONFIGURATION_KEY_ZIT1BC10_CEMLOG_WMTORD_SRV_URL = "WS_TranferOrderSAP_URL";

        /// <summary>
        /// Use to get Transfer Order web service (ZIT1BC10_CEMLOG_WMTORD_SRV) credentials username from SysConfiguration Table
        /// </summary>
        public const String C_ASE_SYSCONFIGURATION_KEY_ZIT1BC10_CEMLOG_WMTORD_SRV_USERNAME = "WsSAPUsername";

        /// <summary>
        /// Use to get Transfer Order web service (ZIT1BC10_CEMLOG_WMTORD_SRV) credentials username from SysConfiguration Table
        /// </summary>
        public const String C_ASE_SYSCONFIGURATION_KEY_ZIT1BC10_CEMLOG_WMTORD_SRV_PASSWORD = "WsSAPPassword";

        /// <summary>
        /// Define identifier Guard_Clause_Violation
        /// </summary>
        public const String C_ASE_GUARD_CLAUSE_VIOLATION = @"Guard_Clause_Violation";

        /// <summary>
        /// Use to get TransferOrder2SAP WarehouseNumber SysConfiguration Table
        /// </summary>
        public const String C_ASE_SYSCONFIGURATION_KEY_SAP_TRANSFERORDER2SAP_WAREHOUSENUMBER = "SAP_TransferOrder2SAP_WarehouseNumber";

        /// <summary>
        /// Use to get MD_TCOMP_R_LocationName SysConfiguration Table
        /// </summary>
        public const String C_ASE_SYSCONFIGURATION_KEY_MD_TCOMP_R_LOCATIONNAME = "MD_TCOMP_R_LocationName";

        /// <summary>
        /// Use to get MD_TTRE_R_LocationName SysConfiguration Table
        /// </summary>
        public const String C_ASE_SYSCONFIGURATION_KEY_MD_TTRE_R_LOCATIONNAME = "MD_TTRE_R_LocationName";

        /// <summary>
        /// Use to check Daemon is enable or not in ProductionDeclaration method
        /// </summary>
        public const string C_DAEMON_ENABLE = "WSProductDeclaration";

        /// <summary>
        /// ModifiedBy User field Constant.
        /// </summary>
        public const String C_WEBSERVICE_EXT = "webServiceEXT";

        /// <summary>
        /// Use to get "AseMediaStoreStrategy" value from SysConfiguration Table
        /// </summary>
        public const string C_ASE_SYSCONFIGURATION_KEY_ASEMEDIASTORESTRATEGY = "AseMediaStoreStrategy";

        /// <summary>
        /// DB StoreStrategyType field constant for AseMediaStoreStrategy
        /// </summary>
        public const string C_STORESTRATEGYTYPE_DB = "DB";

        /// <summary>
        /// FS StoreStrategyType field constant for AseMediaStoreStrategy
        /// </summary>
        public const string C_STORESTRATEGYTYPE_FS = "FS";

        /// <summary>
        /// C_SYSCONFIG_TRCONFIGURATION
        /// </summary>
        public const string C_SYSCONFIG_TRCONFIGURATION = "TRconfiguration";

        /// <summary>
        /// C_SYSCONFIG_MITTENTE_UDS
        /// </summary>
        public const string C_SYSCONFIG_UDS_SENDER = "UDSSender";


        #region Enumeration: EAseStatus, EAseError,EAseProcessStatus
        /// <summary>
        /// Enumeration that maps STANDARD item status
        /// </summary>
        public enum EAseStatus : short
        {
            /// <summary>
            /// Item status is Imported
            /// </summary>
            Imported = 0,

            /// <summary>
            /// Item status is Elaboration
            /// </summary>
            Elaboration = 1,

            /// <summary>
            /// Item status is Done
            /// </summary>
            Done = 2,

            /// <summary>
            /// Item status is Ignored
            /// </summary>
            Ignored = 3,

            /// <summary>
            /// Item status is UpdateNotBusinessFields
            /// </summary>
            UpdateNotBusinessFields = 20,

            /// <summary>
            /// Item status is Booked
            /// </summary>
            Booked = 50,

            /// <summary>
            /// Item status is Closed
            /// </summary>
            Closed = 100,



            /// <summary>
            /// Item status is NotToBeProcessed
            /// </summary>
            NotToBeProcessed = 500,

            #region Upload-Import File Status
            /// <summary>
            /// Item status is MDFileUploadOK: File Upload OK
            /// </summary>
            MDFileUploadOK = 1000,


            /// <summary>
            /// Item status is MDFileUploadKO: File Upload KO
            /// </summary>
            MDFileUploadKO = 1010,

            /// <summary>
            /// Item status is MDFileImportedOK: File Import Task is done
            /// </summary>
            MDFileImportedOK = 1020,

            /// <summary>
            /// Item status is MDFileImportedProcessing: File Import status is: Processing
            /// </summary>
            MDFileImportedProcessing = 1025,

            /// <summary>
            /// Item status is MDFileImportedKO: File Import Task is failed
            /// </summary>
            MDFileImportedKO = 1030,


            /// <summary>
            /// Item status is MDFileDataImportedProcessing: Load File Data to DB  status is: Processing
            /// </summary>
            MDFileDataImportedProcessing = 1045,

            /// <summary>
            /// Item status is MDFileDataImportedOK: Load File Data to DB  is done
            /// </summary>
            MDFileDataImportedOK = 1040,

            /// <summary>
            /// Item status is MDFileDataImportedKO: Load File Data to DB  is failed
            /// </summary>
            MDFileDataImportedKO = 1050,

            #endregion



            #region Ase Scheduler Status

            SCH_Created = 3000,
            SCH_Processing = 3025,

            SCH_ProcessedOK = 3050,
            SCH_RIC_ProcessedOK = 3100,

            SCH_ProcessedKO = 3300,
            SCH_RIC_ProcessedKO = 3350,


            SCH_Disabled = 3400,
            SCH_ToBeIgnored = 3410,
            SCH_Error = 3500,


            #endregion



            #region PWF Status
            /// <summary>
            /// Item status is PWFMasterCreated: PWFMasterCreatedOK = 2000,
            /// </summary>
            PWFMasterCreatedOK = 2000,

            /// <summary>
            /// Item status is PWFDetailCreated: PWFDetailCreatedOK = 2100,
            /// </summary>
            PWFDetailCreatedOK = 2100,


            #endregion


            /// <summary>
            /// Item status is UserSaved
            /// </summary>
            UserSaved = 5000,

            /// <summary>
            /// Item status is UserSavedRTL: Saved Ready To Launch
            /// </summary>
            UserSavedRTL = 5100,





            /// <summary>
            /// 26000: NotToBeExecuted
            /// </summary>
            NotToBeExecuted = 26000,


            /// <summary>
            /// Item status is Erased
            /// </summary>
            Erased = 27000,

            /// <summary>
            /// Item status is Error
            /// </summary>
            Error = Int16.MaxValue
        }


        /// <summary>
        /// Enumeration that maps STANDARD item Error
        /// </summary>
        public enum EAseError : short
        {
            /// <summary>
            /// 0: No Error
            /// </summary>
            NoError = 0,

            /// <summary>
            /// 1: Internal Error
            /// </summary>
            Internal = 1,

            /// <summary>
            /// 2: Error From SAP
            /// </summary>
            SAP = 2,

            /// <summary>
            /// 3: Timeout Error
            /// </summary>
            Timeout = 3,

            /// <summary>
            /// 32: EndpointNotFoundException
            /// </summary>
            EndpointNotFoundException = 32,


            /// <summary>
            /// 34: MessageSecurityException
            /// </summary>
            MessageSecurityException = 34,

            /// <summary>
            /// 4: NotToBeProcessed
            /// </summary>
            NotToBeProcessed = 4,


            /// <summary>
            /// 32766: Business Error
            /// </summary>
            BusinessError = (Int16.MaxValue - 1),

            /// <summary>
            /// 32767: Generic Error
            /// </summary>
            GenericError = Int16.MaxValue
        }




        /// <summary>
        /// Enumeration that maps AseProcessStatus
        /// </summary>
        public enum EAseProcessStatus : short
        {
            /// <summary>
            /// 0: Available
            /// </summary>
            Available = 0,

            /// <summary>
            /// 10: Starting
            /// </summary>
            Starting = 10,


            /// <summary>
            /// 30: Sleeping
            /// </summary>
            Sleeping = 20,

            /// <summary>
            /// 30: Waiting
            /// </summary>
            Waiting = 30,


            /// <summary>
            /// 100: Running
            /// </summary>
            Running = 100,


            /// <summary>
            /// 200: Stopped
            /// </summary>
            Stopped = 200,

            /// <summary>
            /// 10000: Disabled
            /// </summary>
            Disabled = 10000,

            /// <summary>
            /// 20000: Error
            /// </summary>
            Error = 20000,

            /// <summary>
            /// 31000: nonexistent
            /// </summary>
            NonExistent = 31000,

            /// <summary>
            /// 32767: Unknown
            /// </summary>
            Unknown = Int16.MaxValue
        }


        public static string GetEAseStatusInvariantDescription(EAseStatus pValue)
        {
            return pValue.ToString();

        }

        public static string GetEAseErrorInvariantDescription(EAseError pValue)
        {
            return pValue.ToString();

        }

        public static string GetEAseProcessStatusInvariantDescription(EAseProcessStatus pValue)
        {
            return pValue.ToString();

        }


        /// <summary>
        /// Get Enum EAseStatus from Int16 value. Throw AseExceptionEnumerationDoesNotExist if pValue does not exist in EAseStatus Enumeration
        /// </summary>
        /// <param name="pValue">Int16 value of valid enum value</param>
        /// <returns>EAseStatus</returns>
        public static EAseStatus GetEAseStatusFromInt16(UInt16 pValue)
        {
            var __bExists = Enum.IsDefined(typeof(EAseStatus), pValue);

            if (__bExists)
            {
                EAseStatus __enumvalue = (EAseStatus)Enum.ToObject(typeof(EAseStatus), pValue);

                return __enumvalue;
            }

            throw new AseExceptionEnumerationDoesNotExist("EAseStatus is not found for Int16 value=" + pValue.ToString());
        }



        /// <summary>
        /// Get Enum EAseError from Int16 value. Throw AseExceptionEnumerationDoesNotExist if pValue does not exist in EAseError Enumeration
        /// </summary>
        /// <param name="pValue">Int16 value of valid enum value</param>
        /// <returns>EAseError</returns>
        public static EAseError GetEAseErrorFromInt16(UInt16 pValue)
        {
            var __bExists = Enum.IsDefined(typeof(EAseError), pValue);

            if (__bExists)
            {
                EAseError __enumvalue = (EAseError)Enum.ToObject(typeof(EAseError), pValue);

                return __enumvalue;
            }

            throw new AseException.AseExceptionEnumerationDoesNotExist("EAseError is not found for Int16 value=" + pValue.ToString());
        }




        /// <summary>
        /// Get Enum EAseProcessStatus from Int16 value. Throw AseExceptionEnumerationDoesNotExist if pValue does not exist in EAseProcessStatus Enumeration
        /// </summary>
        /// <param name="pValue">Int16 value of valid enum value</param>
        /// <returns>EAseProcessStatus</returns>
        public static EAseProcessStatus GetEAseProcessStatusFromInt16(UInt16 pValue)
        {
            var __bExists = Enum.IsDefined(typeof(EAseProcessStatus), pValue);

            if (__bExists)
            {
                EAseProcessStatus __enumvalue = (EAseProcessStatus)Enum.ToObject(typeof(EAseProcessStatus), pValue);

                return __enumvalue;
            }

            throw new AseException.AseExceptionEnumerationDoesNotExist("EAseProcessStatus is not found for Int16 value=" + pValue.ToString());
        }

        #endregion

        #region Table name Constants

        /// <summary>
        /// AseMessageQueue table name constant
        /// </summary>
        public const string C_ASEMESSAGEQUEUE = "AseMessageQueue";

        /// <summary>
        /// AseTicket table name constant
        /// </summary>
        public const string C_ASETICKET = "AseTicket";

        #endregion

        /// <summary>
        /// Superuser IdContact from AseContact table
        /// </summary>
        public const string C_SUPERUSER_IDCONTACT = "1260BD5B-6A57-4ECD-9A97-0B6799F1AAC5";

        /// <summary>
        /// Superuser IdContact GUID from AseContact table
        /// </summary>
        public static readonly Guid C_SUPERUSER_IDCONTACT_GUID = new Guid(C_SUPERUSER_IDCONTACT);


        /// <summary>
        /// Ase-Default IdOrganization from AseOrganization table
        /// </summary>
        public const string C_ASE_DEFAULT_IDORGANIZATION = "9937306D-FE0B-49D7-9573-2CF3FB30FE2E";

        /// <summary>
        /// Ase-Default GUID IdOrganization 
        /// </summary>
        public static readonly Guid C_ASE_DEFAULT_IDORGANIZATION_GUID = new Guid(C_ASE_DEFAULT_IDORGANIZATION);


        /// <summary>
        /// ASE-DEFAULT IdContract from AseContract Table
        /// </summary>
        public const string C_ASE_DEFAULT_IDCONTRACT = "9937306D-FE0B-49D7-9573-2CF3FB30FE2E";

        /// <summary>
        /// ASE-DEFAULT IdContract  GUID from AseContract table
        /// </summary>
        public static readonly Guid C_ASE_DEFAULT_IDCONTRACT_GUID = new Guid(C_ASE_DEFAULT_IDCONTRACT);


        /// <summary>
        /// Ticket Table Id
        /// </summary>
        public const string C_ASETICKETID = "4685A9C2-16E7-4CEE-94B2-99E6A1A7A504";



        /// <summary>
        /// AseUnitOfMeasure DEFAULT U.M.
        /// </summary>
        public const string C_ASEUNITOFMEASURE_DEFAULT_UM = "ADUM";


        /// <summary>
        /// SysConfiguration LDAP DirectoryDomain Key
        /// </summary>
        public const string C_ASE_SYSCONFIGURATION_KEY_DirectoryDomain = "DirectoryDomain";

        /// <summary>
        /// SysConfiguration LDAP DirectoryPath Key
        /// </summary>
        public const string C_ASE_SYSCONFIGURATION_KEY_DirectoryPath = "DirectoryPath";


        /// <summary>
        /// SysConfiguration NEW LDAP Configuration Key
        /// </summary>
        public const string C_ASE_SYSCONFIGURATION_KEY_LDAPCONF = "LDAPConfKey";



        /// <summary>
        /// SysConfiguration CustomReport1 Key
        /// </summary>
        public const string C_ASE_SYSCONFIGURATION_KEY_CustomReport1 = "CustomReport1";

        /// <summary>
        /// SysConfiguration ExternalResource1 Key
        /// </summary>
        public const string C_ASE_SYSCONFIGURATION_KEY_ExternalResource1 = "ExternalResource1";

        /// <summary>
        /// SysConfiguration key C_DEROGATION_COMPONENT_MAXLENGTH
        /// </summary>
        public const string C_DEROGATION_COMPONENT_MAXLENGTH = "Derogation_Component_MaxLength";

        /// <summary>
        /// DEROGATION_COMPONENT_MAXLENGTH_VALUE
        /// </summary>
        public const string DEROGATION_COMPONENT_MAXLENGTH_VALUE = "100";

        /// <summary>
        /// Use to get "LicensePath" value from SysConfiguration Table
        /// </summary>
        public const String C_ASE_SYSCONFIGURATION_KEY_LICENSEPATH = "LicensePath";


        /// <summary>
        /// Shipping Order Standard Process
        /// </summary>
        public const short C_SHIPPING_ORDER_INPUT_CHANNEL_0 = 0;

        /// <summary>
        /// Shipping Order Simple Picking List Process
        /// </summary>
        public const short C_SHIPPING_ORDER_INPUT_CHANNEL_10 = 0;


        #region MediaType
        public const String C_MEDIATYPE_APPLICATION_JSON = "application/json";
        #endregion MediaType



        #region CRUD ENUM


        /// <summary>
        /// Used to define CRUD Task
        /// </summary>
        public enum EAseCrudOperationType : short
        {
            /// <summary>
            /// No operation
            /// </summary>
            Nothing = 0,

            /// <summary>
            /// Create (Insert)
            /// </summary>
            Create = 10,

            /// <summary>
            /// Read (Select)
            /// </summary>
            Read = 20,

            /// <summary>
            /// Update
            /// </summary>
            Update = 30,

            /// <summary>
            /// Delete
            /// </summary>
            Delete = 40

        }


        #endregion CRUD


        #region AseFeature
        /// <summary>
        ///  C_ASEFEATURE_PERMISSION_WRITE
        /// </summary>
        public const string C_ASEFEATURE_PERMISSION_WRITE = "W";


        /// <summary>
        ///  C_ASEFEATURE_PERMISSION_READ
        /// </summary>
        public const string C_ASEFEATURE_PERMISSION_READ = "R";


        private enum AsePermissionInternal : short
        {
            READ = 10,
            WRITE = 100

        }

        /// <summary>
        /// Check if AseFeature.Permission=="W"
        /// </summary>
        /// <param name="pPermission">AseFeature.Permission</param>
        /// <returns>Boolean</returns>
        public static Boolean isFeaturePermissionWrite(String pPermission)
        {
            return isFeaturePermissionEnabled(pPermission, AsePermissionInternal.WRITE);
        }

        /// <summary>
        /// Check if AseFeature.Permission=="R"
        /// </summary>
        /// <param name="pPermission">AseFeature.Permission</param>
        /// <returns>Boolean</returns>
        public static Boolean isFeaturePermissionRead(String pPermission)
        {
            return isFeaturePermissionEnabled(pPermission, AsePermissionInternal.READ);
        }


        private static Boolean isFeaturePermissionEnabled(String pPermission, AsePermissionInternal pPermissionEnum)
        {
            if (String.IsNullOrEmpty(pPermission))
            {
                return false;
            }

            switch (pPermissionEnum)
            {
                case AsePermissionInternal.READ:
                    return (C_ASEFEATURE_PERMISSION_READ.Equals(pPermission, StringComparison.InvariantCultureIgnoreCase));


                case AsePermissionInternal.WRITE:
                    return (C_ASEFEATURE_PERMISSION_WRITE.Equals(pPermission, StringComparison.InvariantCultureIgnoreCase));

            }

            return false;

        }


        #endregion AseFeature



        #region AseLocation
        /// <summary>
        /// Tag filter
        /// </summary>
        public const string TAGFILTER = "Incoming";

        /// <summary>
        /// Tag filter OutBound
        /// </summary>
        public const string TAGFILTER_LOCATION_OutBound = "OutBound";


        /// <summary>
        /// Ref_Ext filter 900
        /// </summary>
        public const string REFEXT_FILTER_LOCATION_900 = "900";


        /// <summary>
        /// TAGFILTER_LOCATION_INCOMING filter
        /// </summary>
        public const string TAGFILTER_LOCATION_INCOMING = "Incoming";


        public const string TAGFILTER_LOCATION_SCRAP = "SCRAP";


        public const String C_ASELOCATIONNAME_GENERICSITE = @"GenericSite";
        public const String C_ASELOCATIONNAME_GENERICSITE_ID = @"C9296D42-18FF-C94B-A3C0-21CD704CA5EB";
        public static readonly Guid C_ASELOCATIONNAME_GENERICSITE_GUID = new Guid(C_ASELOCATIONNAME_GENERICSITE_ID);


        public const String C_ASELOCATIONNAME_GENERICVIRTUAL = @"GenericVirtual";
        public const String C_ASELOCATIONNAME_GENERICVIRTUAL_ID = @"FB4580A4-8F0C-43AC-B08F-CA8726B7BB35";
        public static readonly Guid C_ASELOCATIONNAME_GENERICVIRTUAL_GUID = new Guid(C_ASELOCATIONNAME_GENERICVIRTUAL_ID);


        public const String C_ASELOCATION_NURSERY = @"Nursery";
        public const String C_ASELOCATION_NURSERY_ID = @"D3DE1ABF-10A5-4BC7-951F-7FF0EFA6B046";
        public static readonly Guid C_ASELOCATION_NURSERY_GUID = new Guid(C_ASELOCATION_NURSERY_ID);


        public const String C_ASELOCATION_RETTIFICAINVENTARIALE = @"RettificaInventariale";

        public const String C_ASELOCATION_RETTIFICAINVENTARIALE_ID = @"3834BE98-6154-471B-8B06-7A3C738AE328";
        public static readonly Guid C_ASELOCATION_RETTIFICAINVENTARIALE_GUID = new Guid(C_ASELOCATION_RETTIFICAINVENTARIALE_ID);


        /// <summary>
        /// Use Constant for getting top records for autocomplete Textbox
        /// </summary>
        public const int AUTOCOMPLETE_LOAD_TOTAL_RECORDS = 100;

        public const String C_ASELOCATION_DUMMY = @"DummyLocation";

        public const String C_ASELOCATION_DUMMY_ID = @"b605bfc9-f651-4481-a9a1-106a88d62835";
        public static readonly Guid C_ASELOCATION_DUMMY_GUID = new Guid(C_ASELOCATION_DUMMY_ID);


        public const string C_LOCATION_REFEXT_DUMMY = "dummyloc_refext";



        #region Location related to Standard PWF


        /// <summary>
        /// Location Tag filter REWORK
        /// </summary>
        public const string TAGFILTER_LOCATION_REWORK = "REWORK";

        /// <summary>
        /// Location Tag filter NON CONFORME SUSPICIOUS
        /// </summary>
        public const string TAGFILTER_LOCATION_NCS = "NCS";

        /// <summary>
        /// Location Suffix for REWORK: -R
        /// </summary>
        public const string LOCATION_SUFFIX_REWORK = "-R";

        /// <summary>
        /// Location Suffix for SCRAP: -S
        /// </summary>
        public const string LOCATION_SUFFIX_SCRAP = "-S";

        /// <summary>
        /// Location Suffix for NON CONFORME SUSPICIOUS: -NCS
        /// </summary>
        public const string LOCATION_SUFFIX_NCS = "-NCS";



        public enum EnumLocationTypeInt
        {
            GOOD = 100,
            SCRAP = 200,
            REWORK = 300,
            NCS = 400
        }
        public static String GetAseLocationByNameGOOD(String pLocationName)
        {
            return GetAseLocationNameByBeginName(pLocationName, EnumLocationTypeInt.GOOD);
        }

        public static String GetAseLocationByNameSCRAP(String pLocationName)
        {
            return GetAseLocationNameByBeginName(pLocationName, EnumLocationTypeInt.SCRAP);
        }

        public static String GetAseLocationByNameSCARP(String pLocationName)
        {
            //return GetAseLocationNameByBeginName(pLocationName,EnumLocationTypeInt.SCRAP);
            return GetAseLocationByNameSCRAP(pLocationName);
        }

        public static String GetAseLocationByNameREWORK(String pLocationName)
        {
            return GetAseLocationNameByBeginName(pLocationName, EnumLocationTypeInt.REWORK);
        }

        public static String GetAseLocationByNameNCS(String pLocationName)
        {
            return GetAseLocationNameByBeginName(pLocationName, EnumLocationTypeInt.NCS);
        }

        public static String GetAseLocationNameByBeginName(String pLocationName
           , EnumLocationTypeInt pLocationType)
        {
            String __LocatioName = string.Empty;

            if (pLocationName == null)
            {
                return null;
            }


            int index = pLocationName.LastIndexOf(@"-");
            if (index > 0)
            {
                __LocatioName = pLocationName.Substring(0, index);
            }
            else
            {
                __LocatioName = pLocationName;
            }


            switch (pLocationType)
            {
                case EnumLocationTypeInt.GOOD:
                    __LocatioName = pLocationName;
                    break;
                case EnumLocationTypeInt.SCRAP:
                    __LocatioName = __LocatioName + AseCommonConst.LOCATION_SUFFIX_SCRAP;
                    break;
                case EnumLocationTypeInt.REWORK:
                    __LocatioName = __LocatioName + AseCommonConst.LOCATION_SUFFIX_REWORK;
                    break;
                case EnumLocationTypeInt.NCS:
                    __LocatioName = __LocatioName + AseCommonConst.LOCATION_SUFFIX_NCS;
                    break;
                default:
                    __LocatioName = null;
                    break;
            }


            return __LocatioName;
        }


        public static List<String> GetAseLocationByNameGSRNList(String pLocationName)
        {
            string sGOOD = GetAseLocationNameByBeginName(pLocationName, EnumLocationTypeInt.GOOD);
            string sSCRAP = GetAseLocationNameByBeginName(pLocationName, EnumLocationTypeInt.SCRAP);
            string sREWORK = GetAseLocationNameByBeginName(pLocationName, EnumLocationTypeInt.REWORK);
            string sNCS = GetAseLocationNameByBeginName(pLocationName, EnumLocationTypeInt.NCS);


            List<String> __lst = new List<string>();

            if (null != sGOOD)
                __lst.Add(sGOOD);

            if (null != sSCRAP)
                __lst.Add(sSCRAP);

            if (null != sREWORK)
                __lst.Add(sREWORK);

            if (null != sNCS)
                __lst.Add(sNCS);

            return __lst;
        }


        public static bool IsAseLocationByNameSCRAP(String pLocationName)
        {
            return IsAseLocationByNameGSRN(pLocationName, EnumLocationTypeInt.SCRAP);
        }


        public static bool IsAseLocationByNameSCARP(String pLocationName)
        {
            //return IsAseLocationByNameGSRN(pLocationName,EnumLocationTypeInt.SCRAP);
            return IsAseLocationByNameSCRAP(pLocationName);
        }

        public static bool IsAseLocationByNameREWORK(String pLocationName)
        {
            return IsAseLocationByNameGSRN(pLocationName, EnumLocationTypeInt.REWORK);
        }



        public static bool IsAseLocationByNameNCS(String pLocationName)
        {
            return IsAseLocationByNameGSRN(pLocationName, EnumLocationTypeInt.NCS);
        }



        public static bool IsAseLocationByNameGOOD(String pLocationName)
        {
            return IsAseLocationByNameGSRN(pLocationName, EnumLocationTypeInt.GOOD);
        }

        public static bool IsAseLocationByNameGSRN(String pLocationName, EnumLocationTypeInt pType)
        {
            bool __bRet = false;
            if (pLocationName == null)
            {
                return false;
            }

            __bRet = false;
            switch (pType)
            {
                case EnumLocationTypeInt.GOOD:
                    __bRet = pLocationName.EndsWith(AseCommonConst.LOCATION_SUFFIX_SCRAP
                        , StringComparison.InvariantCultureIgnoreCase);
                    if (__bRet)
                    {
                        return false;
                    }


                    __bRet = pLocationName.EndsWith(AseCommonConst.LOCATION_SUFFIX_REWORK
                        , StringComparison.InvariantCultureIgnoreCase);
                    if (__bRet)
                    {
                        return false;
                    }

                    __bRet = pLocationName.EndsWith(AseCommonConst.LOCATION_SUFFIX_NCS
                       , StringComparison.InvariantCultureIgnoreCase);
                    if (__bRet)
                    {
                        return false;
                    }

                    __bRet = true;

                    break;
                case EnumLocationTypeInt.SCRAP:
                    __bRet = pLocationName.EndsWith(AseCommonConst.LOCATION_SUFFIX_SCRAP, StringComparison.InvariantCultureIgnoreCase);
                    break;
                case EnumLocationTypeInt.REWORK:
                    __bRet = pLocationName.EndsWith(AseCommonConst.LOCATION_SUFFIX_REWORK, StringComparison.InvariantCultureIgnoreCase);
                    break;
                case EnumLocationTypeInt.NCS:
                    __bRet = pLocationName.EndsWith(AseCommonConst.LOCATION_SUFFIX_NCS, StringComparison.InvariantCultureIgnoreCase);
                    break;
                default:
                    __bRet = false;
                    break;
            }

            return __bRet;

        }


        #endregion AseLocation


        #endregion





        #region AseResource
        public const String C_ASERESOURCE_RETTIFICA = @"Rettifica";
        public const String C_ASERESOURCE_TAG_UDM = "UDM";
        public const String C_ASERESOURCE_TRANSPORTER_ID = "Tansporter ID";

        /// <summary>
        /// Default value for Width = 80 (expressed in Centimeters)
        /// </summary>
        public const decimal C_ASERESOURCE_DEFAULT_WIDTH_CM = 80;
        /// <summary>
        /// Default value for Lenght = 120 (expressed in Centimeters)
        /// </summary>
        public const decimal C_ASERESOURCE_DEFAULT_LENGHT_CM = 120;

        public const String C_ASERESOURCE_UNITOFMEASURE_KG = "KG";

        public const String C_ASERESOURCE_UNITOFMEASURE_CM = "CM";
        #endregion AseResource


        #region Group
        public const String C_ASEGROUP_DUMMY_ID = "ecc07411-4745-42ac-b805-98059c350e07";

        public const String C_ASEGROUP_DUMMY = @"DummyGroup";

        public static readonly Guid C_ASEGROUP_DUMMY_GUID = new Guid(C_ASEGROUP_DUMMY_ID);


        #endregion Group

        #region AseComponent-ZZSapComponent

        /// <summary>
        /// CodContainer Required Yes value (for serial only)
        /// </summary>
        public const short C_COMPONENT_CODCONTAINERREQUIRED = 1;


        //ASE-4172
        /// <summary>
        /// CodContainer NOT Required value
        /// </summary>
        public const short C_COMPONENT_CODCONTAINER_NOT_REQUIRED = 0;



        /// <summary>
        /// CodContainer NOT Required value
        /// </summary>
        public const short C_COMPONENT_CODCONTAINER_REQUIRED_QTY = 2;
        //ASE-4172

        #endregion

        #region ZzLogisticType

        /// <summary>
        /// DUMMY Logistic Type == "ZZ" 
        /// </summary>
        public const string C_ZzLogisticType_DUMMYLogisticType = @"ZZ";

        #endregion

        #region Pulsanti Virtuali
        /// <summary>
        /// Virtual Button Code for AseService CRIENTRI.
        /// </summary>
        ////public const String C_VIRTUAL_BUTTONCODE_SBCRIENTRI = "SBCRIENTRI";



        /// <summary>
        /// Virtual Button Code for AseService CRIENTRI.
        /// </summary>
        public const String C_VIRTUAL_BUTTONCODE_SBCRIENTRI = "SBCRIENTRI";


        /// <summary>
        /// Virtual Button Code for Entrata Merce.
        /// </summary>
        public const String C_VIRTUAL_BUTTONCODE_SBCENTMRC = "SBCENTMRC";

        /// <summary>
        /// Virtual Button Code for Ricambi.
        /// </summary>
        public const String C_VIRTUAL_BUTTONCODE_SBCRICAMBI = "SBCRICAMBI";


        /// <summary>
        /// Virtual Button Code for Scarti.
        /// </summary>
        public const String C_VIRTUAL_BUTTONCODE_SBCSCARTI = "SBCSCARTI";


        /// <summary>
        /// Virtual Button Code for EM_FPASS.
        /// </summary>
        public const String C_VIRTUAL_BUTTONCODE_EM_FPASS = "EM_FPASS";

        /// <summary>
        /// Virtual Button Code for EM_FPASS.
        /// </summary>
        public const String C_VIRTUAL_BUTTONCODE_EM_NOFPASS = "EM_NOFPASS";



        #endregion

        #region [License Validation Constant]

        /// <summary>
        /// Use to get valid license file extention
        /// </summary>
        public const string C_VALID_FILE_EXTENTION = ".lic";

        /// <summary>
        /// Use to get valid license file size
        /// </summary>

        public const string C_VALID_FILE_SIZE = "4";

        /// <summary>
        /// Use to get valid license file size in bytes
        /// </summary>

        public const string C_VALID_FILE_SIZE_BYTE = "4096";


        #endregion [License Validation Constant]



        #region UAT

        /// <summary>
        /// Use to get "AseHeartBeatConfiguration" identifier value from SysConfiguration Table
        /// </summary>
        public const String C_ASE_SYSCONFIGURATION_KEY_AseHeartBeatConfiguration = "AseHeartBeatConfiguration";

        #endregion


        #region RETURN CODE FOR SOAP WEB SERVICE


        /// <summary>
        /// WS_SOAP_SuccessCode
        /// </summary>
        public const string WS_SOAP_SuccessCode = "00";

        /// <summary>
        /// WS_SOAP_FailedErrorCode 
        /// </summary>
        public const string WS_SOAP_FailedErrorCode = "01";


        #endregion

        #region DatePart value used by Report
        public const String C_TRPT_SP_DATEPART_SECOND = @"s";
        public const String C_TRPT_SP_DATEPART_HOUR = @"h";
        public const String C_TRPT_SP_DATEPART_MINUTE = @"m";
        public const String C_TRPT_SP_DATEPART_DAY = @"d";

        /// <summary>
        /// check if <paramref name="pDatePart"/> is valid DatePart (Case Sensitive Comparison). Valid DatePart are: "s","m","h","d" 
        /// </summary>
        /// <param name="pDatePart">DatePart</param>
        /// <returns>true if is valid DatePart</returns>
        public static bool isValidTRPT_SP_DATEPART(String pDatePart)
        {
            if (String.IsNullOrEmpty(pDatePart))
            {
                return false;
            }


            if (pDatePart.Equals(C_TRPT_SP_DATEPART_SECOND, StringComparison.InvariantCulture)
                || pDatePart.Equals(C_TRPT_SP_DATEPART_MINUTE, StringComparison.InvariantCulture)
                || pDatePart.Equals(C_TRPT_SP_DATEPART_HOUR, StringComparison.InvariantCulture)
                || pDatePart.Equals(C_TRPT_SP_DATEPART_DAY, StringComparison.InvariantCulture))
            {
                return true;
            }

            return false;


        }

        /// <summary>
        /// get Valid DatePart ("s","m","h","d") or return "s" as Default (Case Sensitive Comparison)
        /// </summary>
        /// <param name="pDatePart">DatePart</param>
        /// <returns>String that is a Valid DatePart</returns>
        public static String getValidOrDefaultTRPT_SP_DATEPART(String pDatePart)
        {
            String _sRet = C_TRPT_SP_DATEPART_SECOND;

            Boolean _bRet = isValidTRPT_SP_DATEPART(pDatePart);
            if (_bRet)
            {
                _sRet = pDatePart;
            }


            return _sRet;


        }
        #endregion DatePart value used by Report


        #region TCP Port

        public const int C_TCP_PORT_MIN = 0;
        public const int C_TCP_PORT_MAX = 65535;

        public static bool IsvalidTCPPort(int pPortvalue)
        {
            if (pPortvalue < AlfaSynapseEngine.AseCommonUtil.Util.AseCommonConst.C_TCP_PORT_MIN
               || pPortvalue > AlfaSynapseEngine.AseCommonUtil.Util.AseCommonConst.C_TCP_PORT_MAX)
            {
                return false;
            }

            return true;
        }




        #endregion

        #region Email Validation: https://github.com/jstedfast/EmailValidation
        public static bool IsvalidEmailAddress(String pEmailValue
            , bool pAllowTopLevelDomain = true
            , bool pAllowInternational = true)
        {
            if (String.IsNullOrEmpty(pEmailValue))
                return false;

            string __EmailValue = pEmailValue.Trim();
            bool __IsValid = EmailValidation.EmailValidator.Validate(__EmailValue, pAllowTopLevelDomain, pAllowInternational);


            return __IsValid;
        }

        #endregion


        #region ASP.NET Special Folder
        public const string C_SPECIAL_FOLDER_APP_DATA = @"App_Data";
        #endregion


        #region DEFAULTS
        /// <summary>
        /// Use Constant for getting default description for "not available"
        /// </summary>
        public const string C_DEFAULT_NOT_AVAILABLE = "N/A";
        #endregion

        /// <summary>
        /// MailServerTemplate
        /// </summary>
        public const string MailServerTemplate = "MailServerTemplate";

        /// <summary>
        /// MailServerTemplate-ACTION
        /// </summary>
        public const string MailServerTemplate_ACTION = "MailServerTemplate-ACTION";
    }
}




